Introduction to rdeck • rdeck
…
The manhattan data we have loaded. Our scatterplot layer will make
use of the position column to define the centre of each
rendered point, and the species column to change the point
colours and sizes. lon and lat aren’t used in
any of the layer parameters, so they won’t be serialised.

#> # A tibble: 13,987 × 5
#>      lon   lat species             position species_name
#>    <dbl> <dbl> <fct>            <POINT [°]> <chr>       
#>  1 -74.0  40.7 2       (-73.98602 40.73074) cat         
#>  2 -74.0  40.7 1       (-73.98429 40.72947) dog         
#>  3 -74.0  40.7 1       (-73.98775 40.73202) dog         
#>  4 -74.0  40.7 2       (-73.98689 40.73011) cat         
#>  5 -74.0  40.7 2       (-73.98516 40.72883) cat         
#>  6 -74.0  40.7 1       (-73.98818 40.72979) dog         
#>  7 -74.0  40.7 1       (-73.98646 40.73106) dog         
#>  8 -74.0  40.7 1        (-73.98386 40.7317) dog         
#>  9 -74.0  40.7 1       (-73.98559 40.73042) dog         
#> 10 -74.0  40.7 2       (-73.98883 40.73058) cat         
#> # ℹ 13,977 more rows
…
